{
  "formatVersion": 1,
  "database": {
    "version": 5,
    "identityHash": "8953777801b1216488c4c2a341c2dbc0",
    "entities": [
      {
        "tableName": "users",
        "createSql": "CREATE TABLE IF NOT EXISTS `${TABLE_NAME}` (`id` INTEGER PRIMARY KEY AUTOINCREMENT NOT NULL, `username` TEXT NOT NULL, `full_name` TEXT NOT NULL, `bio` TEXT, `facebook_link` TEXT, `instagram_link` TEXT, `twitter_link` TEXT, `longitude` TEXT, `latitude` TEXT)",
        "fields": [
          {
            "fieldPath": "id",
            "columnName": "id",
            "affinity": "INTEGER",
            "notNull": true
          },
          {
            "fieldPath": "userName",
            "columnName": "username",
            "affinity": "TEXT",
            "notNull": true
          },
          {
            "fieldPath": "userRealName",
            "columnName": "full_name",
            "affinity": "TEXT",
            "notNull": true
          },
          {
            "fieldPath": "userBio",
            "columnName": "bio",
            "affinity": "TEXT",
            "notNull": false
          },
          {
            "fieldPath": "userFacebookLink",
            "columnName": "facebook_link",
            "affinity": "TEXT",
            "notNull": false
          },
          {
            "fieldPath": "userInstagramLink",
            "columnName": "instagram_link",
            "affinity": "TEXT",
            "notNull": false
          },
          {
            "fieldPath": "userTwitterLink",
            "columnName": "twitter_link",
            "affinity": "TEXT",
            "notNull": false
          },
          {
            "fieldPath": "longitude",
            "columnName": "longitude",
            "affinity": "TEXT",
            "notNull": false
          },
          {
            "fieldPath": "latitude",
            "columnName": "latitude",
            "affinity": "TEXT",
            "notNull": false
          }
        ],
        "primaryKey": {
          "autoGenerate": true,
          "columnNames": [
            "id"
          ]
        },
        "indices": [],
        "foreignKeys": []
      }
    ],
    "views": [],
    "setupQueries": [
      "CREATE TABLE IF NOT EXISTS room_master_table (id INTEGER PRIMARY KEY,identity_hash TEXT)",
      "INSERT OR REPLACE INTO room_master_table (id,identity_hash) VALUES(42, '8953777801b1216488c4c2a341c2dbc0')"
    ]
  }
}